College Majors Data Set
…
library(caTools)

## Warning: package 'caTools' was built under R version 4.1.2

set.seed(2)
split_data=sample.split(yz,SplitRatio=0.7)
split_data

## [1]  TRUE FALSE FALSE  TRUE

train_data= subset(yz,split_data="TRUE")
train_data

## # A tibble: 172 x 4
## # Groups:   Major_category [16]
##    Major_category         Employment_rate Non_college_jobs_~ Major              
##    <chr>                            <dbl>              <dbl> <chr>              
##  1 Interdisciplinary                0.545             0.435  MULTI/INTERDISCIPL~
##  2 Law & Public Policy              0.429             0.691  CRIMINAL JUSTICE A~
##  3 Psychology & Social W~           0.414             0.430  PSYCHOLOGY         
##  4 Biology & Life Science           0.330             0.295  BIOLOGY            
##  5 Industrial Arts & Con~           0.327             0.398  PHYSICAL FITNESS P~
##  6 Health                           0.294             0.0746 NURSING            
##  7 Communications & Jour~           0.288             0.380  COMMUNICATIONS     
##  8 Computers & Mathemati~           0.233             0.123  COMPUTER SCIENCE   
##  9 Physical Sciences                0.215             0.118  CHEMISTRY          
## 10 Physical Sciences                0.205             0.177  MULTI-DISCIPLINARY~
## # ... with 162 more rows

test_data= subset(yz,split_data="FALSE")
test_data

## # A tibble: 172 x 4
## # Groups:   Major_category [16]
##    Major_category         Employment_rate Non_college_jobs_~ Major              
##    <chr>                            <dbl>              <dbl> <chr>              
##  1 Interdisciplinary                0.545             0.435  MULTI/INTERDISCIPL~
##  2 Law & Public Policy              0.429             0.691  CRIMINAL JUSTICE A~
##  3 Psychology & Social W~           0.414             0.430  PSYCHOLOGY         
##  4 Biology & Life Science           0.330             0.295  BIOLOGY            
##  5 Industrial Arts & Con~           0.327             0.398  PHYSICAL FITNESS P~
##  6 Health                           0.294             0.0746 NURSING            
##  7 Communications & Jour~           0.288             0.380  COMMUNICATIONS     
##  8 Computers & Mathemati~           0.233             0.123  COMPUTER SCIENCE   
##  9 Physical Sciences                0.215             0.118  CHEMISTRY          
## 10 Physical Sciences                0.205             0.177  MULTI-DISCIPLINARY~
## # ... with 162 more rows
…
